Project 3 607
…
Creating the Bag of Words

allwords2<-DocumentTermMatrix(descriptionofjobs)

sparsewords = removeSparseTerms(allwords2,.50)

Begin the analysis

Convert into a tidy table

tidywords<-tidy(sparsewords)
tidywords

## # A tibble: 4,252 x 3
##    document term        count
##    <chr>    <chr>       <dbl>
##  1 1        business        9
##  2 1        computer        1
##  3 1        data           13
##  4 1        development     1
##  5 1        experience      4
##  6 1        knowledge       2
##  7 1        learning        3
##  8 1        machine         2
##  9 1        models          1
## 10 1        opportunity     2
## # ... with 4,242 more rows
…
